com\univer\workload\controller\CalculatorController.class
com\univer\workload\controller\DepartmentController.class
com\univer\workload\ui\views\WorkloadView.class
com\univer\workload\service\GroupService.class
com\univer\workload\ui\views\DepartmentView.class
com\univer\workload\service\CalculatorService.class
com\univer\workload\repository\DepartmentRepository.class
com\univer\workload\ui\MainLayout.class
com\univer\workload\model\CoefValue.class
com\univer\workload\controller\GroupController.class
com\univer\workload\model\Workload.class
com\univer\workload\model\Teacher.class
com\univer\workload\service\DepartmentService.class
com\univer\workload\ui\views\TeacherView.class
com\univer\workload\repository\GroupRepository.class
com\univer\workload\model\dto\WorkloadDTO.class
com\univer\workload\service\WorkloadService.class
com\univer\workload\model\Department.class
com\univer\workload\ui\views\CalculatorView.class
com\univer\workload\model\Faculty.class
com\univer\workload\repository\FacultyRepository.class
com\univer\workload\repository\FormulaRepository.class
com\univer\workload\RunApp.class
com\univer\workload\model\Group.class
com\univer\workload\repository\WorkloadRepository.class
com\univer\workload\model\Coef.class
com\univer\workload\service\FormulaService.class
com\univer\workload\model\Formula.class
com\univer\workload\model\Speciality.class
